^C:\USERS\MENIB\ONEDRIVE\מסמכים\VISUAL STUDIO 2013\PROJECTS\4EX\4EX\MAINGAMES.CPP
/c /ZI /nologo /W3 /WX- /sdl /Od /Oy- /D WIN32 /D _DEBUG /D _CONSOLE /D _LIB /D _UNICODE /D UNICODE /Gm /EHsc /RTC1 /MDd /GS /fp:precise /Zc:wchar_t /Zc:forScope /Fo"DEBUG\\" /Fd"DEBUG\VC120.PDB" /Gd /TP /analyze- C:\USERS\MENIB\ONEDRIVE\מסמכים\VISUAL STUDIO 2013\PROJECTS\4EX\4EX\MAINGAMES.CPP
^C:\USERS\MENIB\ONEDRIVE\מסמכים\VISUAL STUDIO 2013\PROJECTS\4EX\4EX\TICTACTOE.CPP
/c /ZI /nologo /W3 /WX- /sdl /Od /Oy- /D WIN32 /D _DEBUG /D _CONSOLE /D _LIB /D _UNICODE /D UNICODE /Gm /EHsc /RTC1 /MDd /GS /fp:precise /Zc:wchar_t /Zc:forScope /Fo"DEBUG\\" /Fd"DEBUG\VC120.PDB" /Gd /TP /analyze- C:\USERS\MENIB\ONEDRIVE\מסמכים\VISUAL STUDIO 2013\PROJECTS\4EX\4EX\TICTACTOE.CPP
